<?xml version="1.0" encoding="utf-8"?>
<!-- Generator: Adobe Illustrator 19.1.1, SVG Export Plug-In . SVG Version: 6.00 Build 0)  -->
<svg version="1.1" id="Layer_1" xmlns="http://www.w3.org/2000/svg" xmlns:xlink="http://www.w3.org/1999/xlink" x="0px" y="0px"
	 viewBox="0 0 48 51" style="enable-background:new 0 0 48 51;" xml:space="preserve">
<style type="text/css">
	.st0{fill-rule:evenodd;clip-rule:evenodd;fill:#EB402F;}
</style>
<path class="st0" d="M45.9,51H45l-1.2-3.9l-0.3-1.1l0,0l-0.3,1.1L42,51h-0.9l-1.8-6.3h1.1l1,4l0.1,0.8h0l0.2-0.8l1.3-4H44l1.3,4
	l0.2,0.9h0l0.2-0.9l1-4h1.1L45.9,51z M15.5,13.3l5.9-0.5l2.3-5.5c0.2-0.4,0.7-0.4,0.9,0l2.3,5.5l5.9,0.5c0.4,0,0.6,0.5,0.3,0.8
	L28.5,18l1.3,5.8c0.1,0.4-0.3,0.7-0.7,0.5l-5-3.1l-5,3.1c-0.4,0.2-0.8-0.1-0.7-0.5l1.3-5.8l-4.4-3.9C14.9,13.8,15.1,13.3,15.5,13.3z
	 M23.7,32c-5.4,0-10.2-2.7-13.1-6.9L7.7,28v-7h7l-3.4,3.4c2.7,4,7.2,6.6,12.4,6.6c8.3,0,15-6.7,15-15c0-8.3-6.7-15-15-15
	c-8.3,0-15,6.7-15,15h-1c0-8.8,7.2-16,16-16c8.8,0,16,7.2,16,16C39.7,24.8,32.6,32,23.7,32z M5.8,50.4c-0.6,0.5-1.4,0.7-2.4,0.7
	c-0.9,0-1.7-0.2-2.3-0.7c-0.6-0.5-0.9-1.2-0.9-2.1v-5.8h1.2v5.8c0,0.6,0.2,1.1,0.6,1.5c0.4,0.3,0.9,0.5,1.5,0.5
	c0.6,0,1.1-0.2,1.5-0.5c0.4-0.3,0.6-0.8,0.6-1.5v-5.8h1.2v5.8C6.7,49.2,6.4,49.9,5.8,50.4z M9.6,45.6c0.2-0.3,0.5-0.6,0.8-0.8
	c0.3-0.2,0.7-0.3,1.1-0.3c0.7,0,1.2,0.2,1.6,0.6c0.4,0.4,0.6,1,0.6,1.9v4h-1.2v-4c0-0.6-0.1-1-0.3-1.2c-0.2-0.2-0.6-0.4-1-0.4
	c-0.3,0-0.6,0.1-0.9,0.2c-0.3,0.2-0.5,0.4-0.6,0.7V51H8.4v-6.3h1L9.6,45.6z M15.9,43.9c0-0.7,0.2-1.2,0.5-1.6
	c0.4-0.4,0.8-0.6,1.5-0.6c0.1,0,0.3,0,0.4,0c0.1,0,0.3,0.1,0.4,0.1l-0.1,0.9c-0.1,0-0.2,0-0.3,0c-0.1,0-0.2,0-0.3,0
	c-0.3,0-0.6,0.1-0.8,0.3c-0.2,0.2-0.2,0.5-0.2,0.9v0.8h1.3v0.9H17V51h-1.2v-5.5h-1v-0.9h1V43.9z M22.2,44.5c0.9,0,1.6,0.3,2.1,0.9
	c0.5,0.6,0.8,1.4,0.8,2.3v0.1c0,0.9-0.3,1.7-0.8,2.3c-0.5,0.6-1.2,0.9-2.1,0.9c-0.9,0-1.6-0.3-2.1-0.9s-0.8-1.4-0.8-2.3v-0.1
	c0-0.9,0.3-1.7,0.8-2.3C20.7,44.8,21.3,44.5,22.2,44.5z M20.5,47.9c0,0.7,0.1,1.2,0.4,1.7c0.3,0.4,0.7,0.7,1.3,0.7
	c0.6,0,1-0.2,1.3-0.7c0.3-0.4,0.4-1,0.4-1.7v-0.1c0-0.7-0.1-1.2-0.4-1.7c-0.3-0.4-0.7-0.7-1.3-0.7c-0.6,0-1,0.2-1.3,0.7
	c-0.3,0.4-0.4,1-0.4,1.7V47.9z M27.8,51h-1.2v-9.1h1.2V51z M31,51h-1.2v-9.1H31V51z M35.4,44.5c0.9,0,1.6,0.3,2.1,0.9
	c0.5,0.6,0.8,1.4,0.8,2.3v0.1c0,0.9-0.3,1.7-0.8,2.3c-0.5,0.6-1.2,0.9-2.1,0.9s-1.6-0.3-2.1-0.9s-0.8-1.4-0.8-2.3v-0.1
	c0-0.9,0.3-1.7,0.8-2.3C33.9,44.8,34.6,44.5,35.4,44.5z M33.8,47.9c0,0.7,0.1,1.2,0.4,1.7c0.3,0.4,0.7,0.7,1.3,0.7
	c0.6,0,1-0.2,1.3-0.7c0.3-0.4,0.4-1,0.4-1.7v-0.1c0-0.7-0.1-1.2-0.4-1.7c-0.3-0.4-0.7-0.7-1.3-0.7c-0.6,0-1,0.2-1.3,0.7
	c-0.3,0.4-0.4,1-0.4,1.7V47.9z"/>
</svg>
