<?xml version="1.0" encoding="utf-8"?>
<!-- Generator: Adobe Illustrator 19.1.1, SVG Export Plug-In . SVG Version: 6.00 Build 0)  -->
<svg version="1.1" id="Layer_1" xmlns="http://www.w3.org/2000/svg" xmlns:xlink="http://www.w3.org/1999/xlink" x="0px" y="0px"
	 viewBox="0 0 20 24" style="enable-background:new 0 0 20 24;" xml:space="preserve">
<style type="text/css">
	.st0{fill-rule:evenodd;clip-rule:evenodd;fill:#FFFFFF;}
</style>
<path class="st0" d="M17.6,24H2.4C1.1,24,0,22.9,0,21.6L0,2.4C0,1.1,1.1,0,2.4,0h10.1L20,7.5v14.1C20,22.9,18.9,24,17.6,24z M13,2v5
	h5L13,2z M19,8l-7,0V1h0l0,0H2.9C1.7,1,1,1.7,1,2.9l0,18.6C1,22.7,1.7,23,2.9,23h14.3c1.2,0,1.8-0.7,1.8-1.9V8z M5,17h10v1H5V17z
	 M5,13h10v1H5V13z"/>
</svg>
