<?xml version="1.0" encoding="utf-8"?>
<!-- Generator: Adobe Illustrator 19.1.1, SVG Export Plug-In . SVG Version: 6.00 Build 0)  -->
<svg version="1.1" id="Layer_1" xmlns="http://www.w3.org/2000/svg" xmlns:xlink="http://www.w3.org/1999/xlink" x="0px" y="0px"
	 viewBox="0 0 23.5 24" style="enable-background:new 0 0 23.5 24;" xml:space="preserve">
<style type="text/css">
	.st0{fill-rule:evenodd;clip-rule:evenodd;fill:#FFFFFF;}
</style>
<path class="st0" d="M20.6,10.8c0,0.4,0.1,0.8,0.1,1.2s0,0.8-0.1,1.2l2.5,2c0.2,0.2,0.3,0.5,0.1,0.8l-2.4,4.2
	c-0.1,0.3-0.5,0.4-0.7,0.3l-3-1.2c-0.6,0.5-1.3,0.9-2,1.2l-0.5,3.2c0,0.3-0.3,0.5-0.6,0.5H9.4c-0.3,0-0.6-0.2-0.6-0.5l-0.5-3.2
	c-0.7-0.3-1.4-0.7-2-1.2l-3,1.2c-0.3,0.1-0.6,0-0.7-0.3l-2.4-4.2c-0.1-0.3-0.1-0.6,0.1-0.8l2.5-2c0-0.4-0.1-0.8-0.1-1.2
	c0-0.4,0-0.8,0.1-1.2l-2.5-2C0.1,8.7,0,8.3,0.2,8.1l2.4-4.2C2.7,3.7,3,3.6,3.3,3.7l3,1.2c0.6-0.5,1.3-0.9,2-1.2l0.5-3.2
	C8.8,0.2,9.1,0,9.4,0h4.8c0.3,0,0.6,0.2,0.6,0.5l0.5,3.2c0.7,0.3,1.4,0.7,2,1.2l3-1.2c0.3-0.1,0.6,0,0.7,0.3l2.4,4.2
	c0.1,0.3,0.1,0.6-0.1,0.8L20.6,10.8z M20.2,4.7L17,6l-0.5-0.4c-0.6-0.4-1.2-0.8-1.8-1l-0.5-0.2L13.8,1H9.7L9.2,4.4L8.7,4.6
	c-0.6,0.2-1.2,0.6-1.8,1L6.4,6L3.3,4.7l-2,3.6l2.7,2.1l-0.1,0.6c-0.1,0.4-0.1,0.8-0.1,1.1c0,0.3,0,0.6,0.1,1.1l0.1,0.6l-2.7,2.1
	l2,3.6L6.5,18l0.5,0.4c0.6,0.4,1.2,0.8,1.8,1l0.5,0.2L9.7,23h4.1l0.5-3.4l0.5-0.2c0.6-0.2,1.2-0.6,1.8-1.1l0.5-0.3l3.2,1.3l2-3.6
	l-2.7-2.1l0.1-0.6c0.1-0.4,0.1-0.7,0.1-1.1s0-0.6-0.1-1.1l-0.1-0.6l2.7-2.1L20.2,4.7z"/>
</svg>
