<?xml version="1.0" encoding="utf-8"?>
<!-- Generator: Adobe Illustrator 19.1.1, SVG Export Plug-In . SVG Version: 6.00 Build 0)  -->
<svg version="1.1" id="Layer_1" xmlns="http://www.w3.org/2000/svg" xmlns:xlink="http://www.w3.org/1999/xlink" x="0px" y="0px"
	 viewBox="0 0 24 24" style="enable-background:new 0 0 24 24;" xml:space="preserve">
<style type="text/css">
	.st0{fill-rule:evenodd;clip-rule:evenodd;fill:#FFFFFF;}
</style>
<path class="st0" d="M23.9,20c-0.3,2.2-2.1,4-4.4,4c-3.9,0-15,0-15,0C2,24,0,22,0,19.5V0l0,0h1h14h1v1v2c0,0,4.2,0,5.5,0
	C22.9,3,24,4.1,24,5.5L23.9,20L23.9,20z M15.1,20L15.1,20L15,1H1v18.5C1,21.4,2.6,23,4.5,23h12.2C15.8,22.3,15.2,21.2,15.1,20z
	 M23,5.5C23,4.7,22.3,4,21.5,4C20.7,4,20,4.7,20,5.5V19h-1V5.5c0-0.6,0.2-1.1,0.5-1.5H16v15.5c0,1.9,1.6,3.5,3.5,3.5
	s3.5-1.6,3.5-3.5V5.5z M4,14h8v1H4V14z M4,11h8v1H4V11z M4,8h8v1H4V8z"/>
</svg>
